%YAML 1.1
%TAG !u! tag:unity3d.com,2011:
--- !u!114 &11400000
MonoBehaviour:
  m_ObjectHideFlags: 0
  m_CorrespondingSourceObject: {fileID: 0}
  m_PrefabInstance: {fileID: 0}
  m_PrefabAsset: {fileID: 0}
  m_GameObject: {fileID: 0}
  m_Enabled: 1
  m_EditorHideFlags: 0
  m_Script: {fileID: 11500000, guid: 8f847be4b4ca9a245b05d254955cef79, type: 3}
  m_Name: Sword 1
  m_EditorClassIdentifier: 
  id: 4
  _uiDisplay: {fileID: -5365385695610608141, guid: d07b803c54ae9fb4ebfc1e8a13b12f4c,
    type: 3}
  _type: 1
  _buffs:
  - _attribute: 0
    _value: 0
    _min: 2
    _max: 6
  - _attribute: 3
    _value: 0
    _min: 5
    _max: 10
  - _attribute: 4
    _value: 0
    _min: 4
    _max: 12
  _description: A basic training sword.
